SmartOdds Junior Quant Test — Horse Racing
…
Rows: 5
Columns: 2
$ variable     <chr> "official_rating", "obs__top_speed", "obs__racing_post_ra…
$ missing_prop <dbl> 0.261869027, 0.210364877, 0.083097014, 0.061400632, 0.001…

Several columns have missing information including official rating, top speed during the race, and last traded price 5 minutes before the off.

df |> 
  dplyr::filter(is.na(.data$obs__completion_time)) |>
  dplyr::select("obs__Place") |>
  unique()

# A tibble: 26 × 1
   obs__Place
   <chr>     
 1 UR        
 2 PU        
 3 F         
 4 SU        
 5 REF       
 6 RO        
 7 BD        
 8 RR        
 9 CO        
10 3         
# ℹ 16 more rows
…
brier_by_list <- lapply(
  subset_vars,
  summarise_brier_by,
  data = test_df_bets
)

brier_by_subset <- dplyr::bind_rows(brier_by_list)

brier_by_subset

# A tibble: 9,962 × 5
   subset_var      subset_value n_runners brier_model brier_bsp
   <chr>           <chr>            <int>       <dbl>     <dbl>
 1 racecourse_name Laytown             53      0.101     0.106 
 2 race_time       11:15:00             8      0.108     0.149 
 3 race_time       11:40:00           145      0.0806    0.0821
 4 race_time       12:06:00             7      0.116     0.146 
 5 race_time       12:16:00            15      0.0605    0.0687
 6 race_time       12:18:00            38      0.0726    0.0754
 7 race_time       12:28:00            10      0.0891    0.108 
 8 race_time       12:48:00            66      0.110     0.118 
 9 race_time       12:49:00             6      0.145     0.181 
10 race_time       12:53:00            40      0.0920    0.0976
# ℹ 9,952 more rows
…
